…
## [10] "start_lng"          "end_lat"            "end_lng"           
## [13] "member_casual"
Rename columns so that they are consistant with each other. To make joining the dataframes easier
(q1_2019 <- rename(q1_2019
                   ,ride_id = trip_id
                   ,rideable_type = bikeid
                   ,started_at = start_time
                   ,ended_at = end_time
                   ,start_station_name = from_station_name
                   ,start_station_id = from_station_id
                   ,end_station_name = to_station_name
                   ,end_station_id = to_station_id
                   ,member_casual = usertype
))
## # A tibble: 365,069 × 12
##     ride_id started_at          ended_at            rideable_type tripduration
##       <dbl> <dttm>              <dttm>                      <dbl>        <dbl>
##  1 21742443 2019-01-01 00:04:37 2019-01-01 00:11:07          2167          390
##  2 21742444 2019-01-01 00:08:13 2019-01-01 00:15:34          4386          441
##  3 21742445 2019-01-01 00:13:23 2019-01-01 00:27:12          1524          829
##  4 21742446 2019-01-01 00:13:45 2019-01-01 00:43:28           252         1783
##  5 21742447 2019-01-01 00:14:52 2019-01-01 00:20:56          1170          364
##  6 21742448 2019-01-01 00:15:33 2019-01-01 00:19:09          2437          216
##  7 21742449 2019-01-01 00:16:06 2019-01-01 00:19:03          2708          177
##  8 21742450 2019-01-01 00:18:41 2019-01-01 00:20:21          2796          100
##  9 21742451 2019-01-01 00:18:43 2019-01-01 00:47:30          6205         1727
## 10 21742452 2019-01-01 00:19:18 2019-01-01 00:24:54          3939          336
## # ℹ 365,059 more rows
## # ℹ 7 more variables: start_station_id <dbl>, start_station_name <chr>,
## #   end_station_id <dbl>, end_station_name <chr>, member_casual <chr>,
## #   gender <chr>, birthyear <dbl>
…
